<?xml version="1.0" encoding="utf-8"?>
<!-- Generator: Adobe Illustrator 19.0.0, SVG Export Plug-In . SVG Version: 6.00 Build 0)  -->
<svg version="1.1" id="mail-icon" xmlns="http://www.w3.org/2000/svg" xmlns:xlink="http://www.w3.org/1999/xlink" x="0px" y="0px"
	 width="32px" height="24px" viewBox="0 0 32 24" enable-background="new 0 0 32 24" xml:space="preserve">
<path d="M30,0H2C0.9,0,0,0.9,0,2v3.6V22c0,1.1,0.9,2,2,2h28c1.1,0,2-0.9,2-2V5.6V2C32,0.9,31.1,0,30,0z M27.2,4L16,11.7L4.8,4H27.2z
	 M28,19c0,0.6-0.4,1-1,1H5c-0.6,0-1-0.4-1-1V8.3l11,7.4c0.3,0.2,0.7,0.3,1,0.3s0.7-0.1,1-0.3l11-7.4V19z"/>
</svg>
