<?xml version="1.0" encoding="utf-8"?>
<!-- Generator: Adobe Illustrator 19.0.0, SVG Export Plug-In . SVG Version: 6.00 Build 0)  -->
<svg version="1.1" id="search-icon" xmlns="http://www.w3.org/2000/svg" xmlns:xlink="http://www.w3.org/1999/xlink"
	 x="0px" y="0px"
	 viewBox="0 0 32 32" enable-background="new 0 0 32 32" xml:space="preserve">
<path id="XMLID_2_" d="M12,4c4.4,0,8,3.6,8,8c0,1.7-0.5,3.3-1.5,4.6l-0.8,1.1l-1.1,0.8c-1.4,1-3,1.5-4.6,1.5c-4.4,0-8-3.6-8-8
	S7.6,4,12,4 M12,0C5.4,0,0,5.4,0,12c0,6.6,5.4,12,12,12c2.6,0,5-0.8,6.9-2.2l9.6,9.6C29,31.8,29.5,32,30,32s1-0.2,1.4-0.6
	c0.8-0.8,0.8-2.1,0-2.8l-9.6-9.6c1.4-2,2.2-4.4,2.2-6.9C24,5.4,18.6,0,12,0L12,0z"/>
</svg>
